<?xml version="1.0" encoding="UTF-8" standalone="no"?>
<!-- Created with Inkscape (http://www.inkscape.org/) -->

<svg
   xmlns:dc="http://purl.org/dc/elements/1.1/"
   xmlns:cc="http://creativecommons.org/ns#"
   xmlns:rdf="http://www.w3.org/1999/02/22-rdf-syntax-ns#"
   xmlns:svg="http://www.w3.org/2000/svg"
   xmlns="http://www.w3.org/2000/svg"
   xmlns:xlink="http://www.w3.org/1999/xlink"
   xmlns:sodipodi="http://sodipodi.sourceforge.net/DTD/sodipodi-0.dtd"
   xmlns:inkscape="http://www.inkscape.org/namespaces/inkscape"
   width="1024px"
   height="768px"
   id="svg2985"
   version="1.1"
   inkscape:version="0.48.4 r9939"
   sodipodi:docname="Product Icon.svg">
  <defs
     id="defs2987">
    <linearGradient
       id="linearGradient5855">
      <stop
         style="stop-color:#babaff;stop-opacity:1;"
         offset="0"
         id="stop5857" />
      <stop
         style="stop-color:#7e7eff;stop-opacity:1;"
         offset="1"
         id="stop5859" />
    </linearGradient>
    <linearGradient
       id="linearGradient5821">
      <stop
         style="stop-color:#ffffff;stop-opacity:1;"
         offset="0"
         id="stop5823" />
      <stop
         style="stop-color:#e5e5e5;stop-opacity:1;"
         offset="1"
         id="stop5825" />
    </linearGradient>
    <inkscape:perspective
       sodipodi:type="inkscape:persp3d"
       inkscape:vp_x="-459.33675 : 259.88023 : 0"
       inkscape:vp_y="6.1230317e-014 : 1000 : 0"
       inkscape:vp_z="434.75088 : 299.19837 : 0"
       inkscape:persp3d-origin="186.08497 : 67.018106 : 1"
       id="perspective4196" />
    <inkscape:perspective
       sodipodi:type="inkscape:persp3d"
       inkscape:vp_x="-668.64281 : 310.57948 : 0"
       inkscape:vp_y="8.9131146e-014 : 1195.087 : 0"
       inkscape:vp_z="632.85389 : 357.56808 : 0"
       inkscape:persp3d-origin="795.3031 : -68.797809 : 1"
       id="perspective4180" />
    <inkscape:perspective
       sodipodi:type="inkscape:persp3d"
       inkscape:vp_x="-459.33675 : 259.88023 : 0"
       inkscape:vp_y="6.1230317e-014 : 1000 : 0"
       inkscape:vp_z="434.75088 : 299.19837 : 0"
       inkscape:persp3d-origin="501 : 138 : 1"
       id="perspective3041" />
    <inkscape:perspective
       sodipodi:type="inkscape:persp3d"
       inkscape:vp_x="-459.33675 : 259.88023 : 0"
       inkscape:vp_y="6.1230317e-014 : 1000 : 0"
       inkscape:vp_z="504.86908 : 153.73752 : 0"
       inkscape:persp3d-origin="570.2252 : 64.08301 : 1"
       id="perspective3041-1" />
    <inkscape:perspective
       sodipodi:type="inkscape:persp3d"
       inkscape:vp_x="-459.33675 : 259.88023 : 0"
       inkscape:vp_y="6.1230317e-014 : 1000 : 0"
       inkscape:vp_z="504.86908 : 153.73752 : 0"
       inkscape:persp3d-origin="569.2252 : -14.916992 : 1"
       id="perspective3041-2" />
    <inkscape:perspective
       sodipodi:type="inkscape:persp3d"
       inkscape:vp_x="-459.33675 : 259.88023 : 0"
       inkscape:vp_y="6.1230317e-014 : 1000 : 0"
       inkscape:vp_z="434.75088 : 299.19837 : 0"
       inkscape:persp3d-origin="709.69838 : 150.4042 : 1"
       id="perspective3041-5" />
    <inkscape:perspective
       sodipodi:type="inkscape:persp3d"
       inkscape:vp_x="-459.33675 : 259.88023 : 0"
       inkscape:vp_y="6.1230317e-014 : 1000 : 0"
       inkscape:vp_z="434.75088 : 299.19837 : 0"
       inkscape:persp3d-origin="593.08497 : -129.9819 : 1"
       id="perspective3041-5-8" />
    <inkscape:perspective
       sodipodi:type="inkscape:persp3d"
       inkscape:vp_x="-459.33675 : 259.88023 : 0"
       inkscape:vp_y="6.1230317e-014 : 1000 : 0"
       inkscape:vp_z="434.75088 : 299.19837 : 0"
       inkscape:persp3d-origin="887.08497 : 61.018104 : 1"
       id="perspective3041-5-7" />
    <inkscape:perspective
       sodipodi:type="inkscape:persp3d"
       inkscape:vp_x="-459.33675 : 259.88023 : 0"
       inkscape:vp_y="6.1230317e-014 : 1000 : 0"
       inkscape:vp_z="434.75088 : 299.19837 : 0"
       inkscape:persp3d-origin="648.08497 : -90.981896 : 1"
       id="perspective3041-5-7-3" />
    <inkscape:perspective
       sodipodi:type="inkscape:persp3d"
       inkscape:vp_x="-459.33675 : 259.88023 : 0"
       inkscape:vp_y="6.1230317e-014 : 1000 : 0"
       inkscape:vp_z="434.75088 : 299.19837 : 0"
       inkscape:persp3d-origin="789.08497 : -86.981898 : 1"
       id="perspective3041-5-8-2" />
    <inkscape:perspective
       sodipodi:type="inkscape:persp3d"
       inkscape:vp_x="-459.33675 : 259.88023 : 0"
       inkscape:vp_y="6.1230317e-014 : 1000 : 0"
       inkscape:vp_z="434.75088 : 299.19837 : 0"
       inkscape:persp3d-origin="789.08497 : 41.018106 : 1"
       id="perspective3041-5-7-3-7" />
    <inkscape:perspective
       sodipodi:type="inkscape:persp3d"
       inkscape:vp_x="-459.33675 : 352.11345 : 0"
       inkscape:vp_y="6.1230317e-014 : 1354.9066 : 0"
       inkscape:vp_z="434.75088 : 405.38586 : 0"
       inkscape:persp3d-origin="365.27521 : -111.41088 : 1"
       id="perspective4196-2" />
    <inkscape:perspective
       sodipodi:type="inkscape:persp3d"
       inkscape:vp_x="-459.33675 : 259.88023 : 0"
       inkscape:vp_y="6.1230317e-014 : 1000 : 0"
       inkscape:vp_z="434.75088 : 299.19837 : 0"
       inkscape:persp3d-origin="377.27506 : 11.982711 : 1"
       id="perspective4196-2-7" />
    <inkscape:perspective
       sodipodi:type="inkscape:persp3d"
       inkscape:vp_x="-459.33675 : 259.88023 : 0"
       inkscape:vp_y="6.1230317e-014 : 1000 : 0"
       inkscape:vp_z="434.75088 : 299.19837 : 0"
       inkscape:persp3d-origin="377.27556 : -118.74328 : 1"
       id="perspective4196-2-7-0" />
    <inkscape:perspective
       sodipodi:type="inkscape:persp3d"
       inkscape:vp_x="-459.33675 : 259.88023 : 0"
       inkscape:vp_y="6.1230317e-014 : 1000 : 0"
       inkscape:vp_z="434.75088 : 299.19837 : 0"
       inkscape:persp3d-origin="789.87444 : -215.60596 : 1"
       id="perspective3041-5-8-2-1" />
    <inkscape:perspective
       sodipodi:type="inkscape:persp3d"
       inkscape:vp_x="-459.33675 : 259.88023 : 0"
       inkscape:vp_y="6.1230317e-014 : 1000 : 0"
       inkscape:vp_z="434.75088 : 299.19837 : 0"
       inkscape:persp3d-origin="377.27346 : -235.92045 : 1"
       id="perspective4196-2-7-0-7" />
    <linearGradient
       inkscape:collect="always"
       xlink:href="#linearGradient5821"
       id="linearGradient5827"
       x1="140"
       y1="341.5"
       x2="551"
       y2="341.5"
       gradientUnits="userSpaceOnUse"
       gradientTransform="translate(-858,19)" />
    <radialGradient
       inkscape:collect="always"
       xlink:href="#linearGradient5855"
       id="radialGradient5861"
       cx="506.46616"
       cy="342.80451"
       fx="506.46616"
       fy="342.80451"
       r="400"
       gradientTransform="matrix(1,0,0,0.7275,0,93.41423)"
       gradientUnits="userSpaceOnUse" />
  </defs>
  <sodipodi:namedview
     id="base"
     pagecolor="#ffffff"
     bordercolor="#666666"
     borderopacity="1.0"
     inkscape:pageopacity="0.0"
     inkscape:pageshadow="2"
     inkscape:zoom="1"
     inkscape:cx="513.43497"
     inkscape:cy="379.61592"
     inkscape:current-layer="layer4"
     inkscape:document-units="px"
     showgrid="false"
     inkscape:window-width="1600"
     inkscape:window-height="1138"
     inkscape:window-x="1672"
     inkscape:window-y="-8"
     inkscape:window-maximized="1"
     showguides="true"
     inkscape:guide-bbox="true" />
  <metadata
     id="metadata2990">
    <rdf:RDF>
      <cc:Work
         rdf:about="">
        <dc:format>image/svg+xml</dc:format>
        <dc:type
           rdf:resource="http://purl.org/dc/dcmitype/StillImage" />
        <dc:title></dc:title>
      </cc:Work>
    </rdf:RDF>
  </metadata>
  <g
     inkscape:groupmode="layer"
     id="layer8"
     inkscape:label="Background"
     style="display:none">
    <rect
       style="fill:url(#radialGradient5861);fill-opacity:1;stroke-width:30;stroke-miterlimit:4;stroke-dasharray:none"
       id="rect5853"
       width="800"
       height="582"
       x="106.46616"
       y="51.804512" />
  </g>
  <g
     inkscape:groupmode="layer"
     id="layer3"
     inkscape:label="Page">
    <rect
       style="fill:#d4d4d9;fill-opacity:1;stroke-width:30;stroke-miterlimit:4;stroke-dasharray:none"
       id="rect4389-6"
       width="431"
       height="551"
       x="296.97607"
       y="85.432228"
       inkscape:export-filename="C:\Users\Q\Documents\Q Software Innovations Files\Code\Documentation Editor\SupportFiles\Product Icon.png"
       inkscape:export-xdpi="90"
       inkscape:export-ydpi="90" />
    <rect
       style="fill:url(#linearGradient5827);fill-opacity:1;stroke-width:30;stroke-miterlimit:4;stroke-dasharray:none"
       id="rect4389"
       width="411"
       height="531"
       x="-718"
       y="95"
       transform="scale(-1,1)"
       inkscape:export-filename="C:\Users\Q\Documents\Q Software Innovations Files\Code\Documentation Editor\SupportFiles\Product Icon.png"
       inkscape:export-xdpi="90"
       inkscape:export-ydpi="90" />
  </g>
  <g
     inkscape:groupmode="layer"
     id="layer6"
     inkscape:label="Text Lines">
    <rect
       style="fill:#b2a8ff;fill-opacity:0.49468085;stroke-width:30;stroke-miterlimit:4;stroke-dasharray:none"
       id="rect5591"
       width="372.41422"
       height="376.94205"
       x="327.39783"
       y="118.01279"
       inkscape:export-filename="C:\Users\Q\Documents\Q Software Innovations Files\Code\Documentation Editor\SupportFiles\Product Icon.png"
       inkscape:export-xdpi="90"
       inkscape:export-ydpi="90" />
    <rect
       style="fill:#77a7ff;fill-opacity:1"
       id="rect4440"
       width="207"
       height="22"
       x="474.11526"
       y="134.18176"
       inkscape:export-filename="C:\Users\Q\Documents\Q Software Innovations Files\Code\Documentation Editor\SupportFiles\Product Icon.png"
       inkscape:export-xdpi="90"
       inkscape:export-ydpi="90" />
    <rect
       style="fill:#77a7ff;fill-opacity:1"
       id="rect4440-7"
       width="198"
       height="22"
       x="474.11526"
       y="199.38174"
       inkscape:export-filename="C:\Users\Q\Documents\Q Software Innovations Files\Code\Documentation Editor\SupportFiles\Product Icon.png"
       inkscape:export-xdpi="90"
       inkscape:export-ydpi="90" />
    <rect
       style="fill:#77a7ff;fill-opacity:1"
       id="rect4440-2"
       width="313"
       height="22"
       x="340.11526"
       y="264.58173"
       inkscape:export-filename="C:\Users\Q\Documents\Q Software Innovations Files\Code\Documentation Editor\SupportFiles\Product Icon.png"
       inkscape:export-xdpi="90"
       inkscape:export-ydpi="90" />
    <rect
       style="fill:#77a7ff;fill-opacity:1"
       id="rect4440-5"
       width="331"
       height="22"
       x="340.11526"
       y="329.78174"
       inkscape:export-filename="C:\Users\Q\Documents\Q Software Innovations Files\Code\Documentation Editor\SupportFiles\Product Icon.png"
       inkscape:export-xdpi="90"
       inkscape:export-ydpi="90" />
    <rect
       style="fill:#77a7ff;fill-opacity:1"
       id="rect4440-52"
       width="346"
       height="22"
       x="340.11526"
       y="394.98172"
       inkscape:export-filename="C:\Users\Q\Documents\Q Software Innovations Files\Code\Documentation Editor\SupportFiles\Product Icon.png"
       inkscape:export-xdpi="90"
       inkscape:export-ydpi="90" />
    <rect
       style="fill:#77a7ff;fill-opacity:1"
       id="rect4440-1"
       width="236"
       height="22"
       x="340.11526"
       y="460.1817"
       inkscape:export-filename="C:\Users\Q\Documents\Q Software Innovations Files\Code\Documentation Editor\SupportFiles\Product Icon.png"
       inkscape:export-xdpi="90"
       inkscape:export-ydpi="90" />
    <rect
       style="fill:#fafaff;fill-opacity:1;stroke-width:30;stroke-miterlimit:4;stroke-dasharray:none"
       id="rect4389-9"
       width="25.002295"
       height="68.02916"
       x="687.12329"
       y="179.64867"
       inkscape:export-filename="C:\Users\Q\Documents\Q Software Innovations Files\Code\Documentation Editor\SupportFiles\Product Icon.png"
       inkscape:export-xdpi="90"
       inkscape:export-ydpi="90" />
    <rect
       style="fill:#fafaff;fill-opacity:1;stroke-width:30;stroke-miterlimit:4;stroke-dasharray:none"
       id="rect4389-9-8"
       width="37.453835"
       height="61.237411"
       x="669.27588"
       y="244.17027"
       inkscape:export-filename="C:\Users\Q\Documents\Q Software Innovations Files\Code\Documentation Editor\SupportFiles\Product Icon.png"
       inkscape:export-xdpi="90"
       inkscape:export-ydpi="90" />
    <rect
       style="fill:#fafaff;fill-opacity:1;stroke-width:30;stroke-miterlimit:4;stroke-dasharray:none"
       id="rect4389-9-3"
       width="21.606421"
       height="73.68895"
       x="685.38721"
       y="298.50427"
       inkscape:export-filename="C:\Users\Q\Documents\Q Software Innovations Files\Code\Documentation Editor\SupportFiles\Product Icon.png"
       inkscape:export-xdpi="90"
       inkscape:export-ydpi="90" />
    <rect
       style="fill:#fafaff;fill-opacity:1;stroke-width:30;stroke-miterlimit:4;stroke-dasharray:none"
       id="rect4389-9-5"
       width="15.94663"
       height="70.293076"
       x="696.17896"
       y="109.73119"
       inkscape:export-filename="C:\Users\Q\Documents\Q Software Innovations Files\Code\Documentation Editor\SupportFiles\Product Icon.png"
       inkscape:export-xdpi="90"
       inkscape:export-ydpi="90" />
    <rect
       style="fill:#fafaff;fill-opacity:1;stroke-width:30;stroke-miterlimit:4;stroke-dasharray:none"
       id="rect4389-9-3-5"
       width="114.39388"
       height="73.68895"
       x="588.94501"
       y="441.13098"
       inkscape:export-filename="C:\Users\Q\Documents\Q Software Innovations Files\Code\Documentation Editor\SupportFiles\Product Icon.png"
       inkscape:export-xdpi="90"
       inkscape:export-ydpi="90" />
  </g>
  <g
     inkscape:groupmode="layer"
     id="layer5"
     inkscape:label="Text Cursor">
    <g
       id="g5689"
       transform="translate(171,19)"
       inkscape:export-filename="C:\Users\Q\Documents\Q Software Innovations Files\Code\Documentation Editor\SupportFiles\Product Icon.png"
       inkscape:export-xdpi="90"
       inkscape:export-ydpi="90">
      <rect
         y="493.4129"
         x="418.14093"
         height="8"
         width="8"
         id="rect4493-4-6"
         style="fill:#000000;fill-opacity:1" />
      <rect
         y="415.48233"
         x="426.07465"
         height="77.996849"
         width="8"
         id="rect4491"
         style="fill:#000000;fill-opacity:1" />
      <rect
         y="407.48233"
         x="434.07782"
         height="8"
         width="8"
         id="rect4493"
         style="fill:#000000;fill-opacity:1" />
      <rect
         y="407.54858"
         x="418.14087"
         height="8"
         width="8"
         id="rect4493-4"
         style="fill:#000000;fill-opacity:1" />
      <rect
         y="493.4129"
         x="434.14722"
         height="8"
         width="8"
         id="rect4493-4-8"
         style="fill:#000000;fill-opacity:1" />
    </g>
  </g>
  <g
     inkscape:groupmode="layer"
     id="layer2"
     inkscape:label="Poles">
    <g
       sodipodi:type="inkscape:box3d"
       style="fill:#bfa886;fill-opacity:1"
       id="g4182"
       inkscape:perspectiveID="#perspective4196-2"
       inkscape:corner0="-0.060772473 : 0.49677546 : 0 : 1"
       inkscape:corner7="-0.0868971 : 0.27656473 : 0.02301319 : 1"
       inkscape:export-filename="C:\Users\Q\Documents\Q Software Innovations Files\Code\Documentation Editor\SupportFiles\Product Icon.png"
       inkscape:export-xdpi="90"
       inkscape:export-ydpi="90">
      <path
         sodipodi:type="inkscape:box3dside"
         id="path4194"
         style="fill:#e9e9ff;fill-rule:evenodd;stroke:none"
         inkscape:box3dsidetype="11"
         d="m 403.19524,218.39611 12.00001,9.19884 0,298.36497 -12.00001,-9.19883 z" />
      <path
         sodipodi:type="inkscape:box3dside"
         id="path4184"
         style="fill:#353564;fill-rule:evenodd;stroke:none"
         inkscape:box3dsidetype="6"
         d="m 393.19024,227.72534 0,298.36497 10.005,-9.32922 0,-298.36498 z" />
      <path
         sodipodi:type="inkscape:box3dside"
         id="path4192"
         style="fill:#afafde;fill-rule:evenodd;stroke:none"
         inkscape:box3dsidetype="13"
         d="m 393.19024,526.09031 12,9.19883 10.00501,-9.32922 -12.00001,-9.19883 z" />
      <path
         sodipodi:type="inkscape:box3dside"
         id="path4186"
         style="fill:#9f7d4d;fill-opacity:1"
         inkscape:box3dsidetype="5"
         d="m 393.19024,227.72534 12,9.19883 10.00501,-9.32922 -12.00001,-9.19884 z" />
      <path
         sodipodi:type="inkscape:box3dside"
         id="path4190"
         style="fill:#ffffff;fill-opacity:1"
         inkscape:box3dsidetype="14"
         d="m 405.19024,236.92417 0,298.36497 10.00501,-9.32922 0,-298.36497 z" />
      <path
         sodipodi:type="inkscape:box3dside"
         id="path4188"
         style="fill:#bfa886;fill-opacity:1"
         inkscape:box3dsidetype="3"
         d="m 393.19024,227.72534 12,9.19883 0,298.36497 -12,-9.19883 z" />
    </g>
    <g
       sodipodi:type="inkscape:box3d"
       style="fill:#bfa886;fill-opacity:1"
       id="g4182-6"
       inkscape:perspectiveID="#perspective4196-2-7"
       inkscape:corner0="-0.060772473 : 0.49677546 : 0 : 1"
       inkscape:corner7="-0.24799895 : 0.48443192 : 0.02301319 : 1"
       inkscape:export-filename="C:\Users\Q\Documents\Q Software Innovations Files\Code\Documentation Editor\SupportFiles\Product Icon.png"
       inkscape:export-xdpi="90"
       inkscape:export-ydpi="90">
      <path
         sodipodi:type="inkscape:box3dside"
         id="path4194-7"
         style="fill:#e9e9ff;fill-rule:evenodd;stroke:none"
         inkscape:box3dsidetype="11"
         d="m 415.19509,268.14988 86.00001,48.65646 0,12.34354 -86.00001,-48.65646 z" />
      <path
         sodipodi:type="inkscape:box3dside"
         id="path4184-8"
         style="fill:#353564;fill-rule:evenodd;stroke:none"
         inkscape:box3dsidetype="6"
         d="m 405.19009,275.03539 0,12.34354 10.005,-6.88551 0,-12.34354 z" />
      <path
         sodipodi:type="inkscape:box3dside"
         id="path4192-7"
         style="fill:#afafde;fill-rule:evenodd;stroke:none"
         inkscape:box3dsidetype="13"
         d="m 405.19009,287.37893 86,48.65646 10.00501,-6.88551 -86.00001,-48.65646 z" />
      <path
         sodipodi:type="inkscape:box3dside"
         id="path4186-8"
         style="fill:#9f7d4d;fill-opacity:1"
         inkscape:box3dsidetype="5"
         d="m 405.19009,275.03539 86,48.65646 10.00501,-6.88551 -86.00001,-48.65646 z" />
      <path
         sodipodi:type="inkscape:box3dside"
         id="path4190-1"
         style="fill:#ffefd7;fill-opacity:1"
         inkscape:box3dsidetype="14"
         d="m 491.19009,323.69185 0,12.34354 10.00501,-6.88551 0,-12.34354 z" />
      <path
         sodipodi:type="inkscape:box3dside"
         id="path4188-6"
         style="fill:#bfa886;fill-opacity:1"
         inkscape:box3dsidetype="3"
         d="m 405.19009,275.03539 86,48.65646 0,12.34354 -86,-48.65646 z" />
    </g>
    <g
       sodipodi:type="inkscape:box3d"
       style="fill:#bfa886;fill-opacity:1"
       id="g4182-6-9"
       inkscape:perspectiveID="#perspective4196-2-7-0"
       inkscape:corner0="-0.060772473 : 0.49677546 : 0 : 1"
       inkscape:corner7="-0.24799895 : 0.48443192 : 0.02301319 : 1"
       inkscape:export-filename="C:\Users\Q\Documents\Q Software Innovations Files\Code\Documentation Editor\SupportFiles\Product Icon.png"
       inkscape:export-xdpi="90"
       inkscape:export-ydpi="90">
      <path
         sodipodi:type="inkscape:box3dside"
         id="path4194-7-5"
         style="fill:#e9e9ff;fill-rule:evenodd;stroke:none"
         inkscape:box3dsidetype="11"
         d="m 415.19559,398.87588 86.00001,48.65646 0,12.34354 -86.00001,-48.65646 z" />
      <path
         sodipodi:type="inkscape:box3dside"
         id="path4184-8-8"
         style="fill:#353564;fill-rule:evenodd;stroke:none"
         inkscape:box3dsidetype="6"
         d="m 405.19059,405.76138 0,12.34354 10.005,-6.8855 0,-12.34354 z" />
      <path
         sodipodi:type="inkscape:box3dside"
         id="path4192-7-9"
         style="fill:#afafde;fill-rule:evenodd;stroke:none"
         inkscape:box3dsidetype="13"
         d="m 405.19059,418.10492 86,48.65646 10.00501,-6.8855 -86.00001,-48.65646 z" />
      <path
         sodipodi:type="inkscape:box3dside"
         id="path4186-8-0"
         style="fill:#9f7d4d;fill-opacity:1"
         inkscape:box3dsidetype="5"
         d="m 405.19059,405.76138 86,48.65646 10.00501,-6.8855 -86.00001,-48.65646 z" />
      <path
         sodipodi:type="inkscape:box3dside"
         id="path4190-1-0"
         style="fill:#ffefd7;fill-opacity:1"
         inkscape:box3dsidetype="14"
         d="m 491.19059,454.41784 0,12.34354 10.00501,-6.8855 0,-12.34354 z" />
      <path
         sodipodi:type="inkscape:box3dside"
         id="path4188-6-0"
         style="fill:#bfa886;fill-opacity:1"
         inkscape:box3dsidetype="3"
         d="m 405.19059,405.76138 86,48.65646 0,12.34354 -86,-48.65646 z" />
    </g>
    <g
       sodipodi:type="inkscape:box3d"
       style="fill:#bfa886;fill-opacity:1"
       id="g4182-6-9-2"
       inkscape:perspectiveID="#perspective4196-2-7-0-7"
       inkscape:corner0="-0.060772473 : 0.49677546 : 0 : 1"
       inkscape:corner7="-0.24799895 : 0.48443192 : 0.02301319 : 1"
       inkscape:export-filename="C:\Users\Q\Documents\Q Software Innovations Files\Code\Documentation Editor\SupportFiles\Product Icon.png"
       inkscape:export-xdpi="90"
       inkscape:export-ydpi="90">
      <path
         sodipodi:type="inkscape:box3dside"
         id="path4194-7-5-1"
         style="fill:#e9e9ff;fill-rule:evenodd;stroke:none"
         inkscape:box3dsidetype="11"
         d="m 415.19349,516.05305 86.00001,48.65646 0,12.34354 -86.00001,-48.65646 z" />
      <path
         sodipodi:type="inkscape:box3dside"
         id="path4184-8-8-4"
         style="fill:#353564;fill-rule:evenodd;stroke:none"
         inkscape:box3dsidetype="6"
         d="m 405.18849,522.93855 0,12.34354 10.005,-6.8855 0,-12.34354 z" />
      <path
         sodipodi:type="inkscape:box3dside"
         id="path4192-7-9-9"
         style="fill:#afafde;fill-rule:evenodd;stroke:none"
         inkscape:box3dsidetype="13"
         d="m 405.18849,535.28209 86,48.65646 10.00501,-6.8855 -86.00001,-48.65646 z" />
      <path
         sodipodi:type="inkscape:box3dside"
         id="path4186-8-0-9"
         style="fill:#9f7d4d;fill-opacity:1"
         inkscape:box3dsidetype="5"
         d="m 405.18849,522.93855 86,48.65646 10.00501,-6.8855 -86.00001,-48.65646 z" />
      <path
         sodipodi:type="inkscape:box3dside"
         id="path4190-1-0-0"
         style="fill:#ffefd7;fill-opacity:1"
         inkscape:box3dsidetype="14"
         d="m 491.18849,571.59501 0,12.34354 10.00501,-6.8855 0,-12.34354 z" />
      <path
         sodipodi:type="inkscape:box3dside"
         id="path4188-6-0-3"
         style="fill:#bfa886;fill-opacity:1"
         inkscape:box3dsidetype="3"
         d="m 405.18849,522.93855 86,48.65646 0,12.34354 -86,-48.65646 z" />
    </g>
  </g>
  <g
     id="layer1"
     inkscape:label="Blocks"
     inkscape:groupmode="layer">
    <g
       sodipodi:type="inkscape:box3d"
       style="fill:#aa8800"
       id="g3043-2"
       inkscape:perspectiveID="#perspective3041-5"
       inkscape:corner0="0.78266065 : 0.25090554 : 0 : 1"
       inkscape:corner7="0.6634563 : 0.18877242 : 0.11520326 : 1"
       inkscape:export-filename="C:\Users\Q\Documents\Q Software Innovations Files\Code\Documentation Editor\SupportFiles\Product Icon.png"
       inkscape:export-xdpi="90"
       inkscape:export-ydpi="90">
      <path
         sodipodi:type="inkscape:box3dside"
         id="path3055-7"
         style="fill:#e9e9ff;fill-rule:evenodd;stroke:none"
         inkscape:box3dsidetype="11"
         d="m 400.2783,128.8236 54.75494,30.97886 0,62.13312 -54.75494,-30.97886 z" />
      <path
         sodipodi:type="inkscape:box3dside"
         id="path3045-6"
         style="fill:#353564;fill-rule:evenodd;stroke:none"
         inkscape:box3dsidetype="6"
         d="m 350.19358,163.29223 0,62.13312 50.08472,-34.46863 0,-62.13312 z" />
      <path
         sodipodi:type="inkscape:box3dside"
         id="path3053-1"
         style="fill:#afafde;fill-rule:evenodd;stroke:none"
         inkscape:box3dsidetype="13"
         d="m 350.19358,225.42535 54.75494,30.97885 50.08472,-34.46862 -54.75494,-30.97886 z" />
      <path
         sodipodi:type="inkscape:box3dside"
         id="path3047-4"
         style="fill:#007fff;fill-opacity:1;fill-rule:evenodd;stroke:none"
         inkscape:box3dsidetype="5"
         d="m 350.19358,163.29223 54.75494,30.97885 50.08472,-34.46862 -54.75494,-30.97886 z" />
      <path
         sodipodi:type="inkscape:box3dside"
         id="path3051-2"
         style="fill:#0000ff;fill-opacity:1;fill-rule:evenodd;stroke:none"
         inkscape:box3dsidetype="14"
         d="m 404.94852,194.27108 0,62.13312 50.08472,-34.46862 0,-62.13312 z" />
      <path
         sodipodi:type="inkscape:box3dside"
         id="path3049-3"
         style="fill:#00007f;fill-opacity:1;fill-rule:evenodd;stroke:none"
         inkscape:box3dsidetype="3"
         d="m 350.19358,163.29223 54.75494,30.97885 0,62.13312 -54.75494,-30.97885 z" />
    </g>
    <g
       sodipodi:type="inkscape:box3d"
       style="fill:#aa8800"
       id="g3043-2-5-7"
       inkscape:perspectiveID="#perspective3041-5-8-2"
       inkscape:corner0="0.78266065 : 0.25090554 : 0 : 1"
       inkscape:corner7="0.6634563 : 0.18877242 : 0.11520326 : 1"
       inkscape:export-filename="C:\Users\Q\Documents\Q Software Innovations Files\Code\Documentation Editor\SupportFiles\Product Icon.png"
       inkscape:export-xdpi="90"
       inkscape:export-ydpi="90">
      <path
         sodipodi:type="inkscape:box3dside"
         id="path3055-7-7-9"
         style="fill:#e9e9ff;fill-rule:evenodd;stroke:none"
         inkscape:box3dsidetype="11"
         d="m 479.66489,366.2097 54.75494,30.97885 0,62.13312 -54.75494,-30.97885 z" />
      <path
         sodipodi:type="inkscape:box3dside"
         id="path3045-6-6-3"
         style="fill:#353564;fill-rule:evenodd;stroke:none"
         inkscape:box3dsidetype="6"
         d="m 429.58017,400.67833 0,62.13312 50.08472,-34.46863 0,-62.13312 z" />
      <path
         sodipodi:type="inkscape:box3dside"
         id="path3053-1-1-1"
         style="fill:#afafde;fill-rule:evenodd;stroke:none"
         inkscape:box3dsidetype="13"
         d="m 429.58017,462.81145 54.75494,30.97885 50.08472,-34.46863 -54.75494,-30.97885 z" />
      <path
         sodipodi:type="inkscape:box3dside"
         id="path3047-4-8-9"
         style="fill:#7fff00;fill-opacity:1;fill-rule:evenodd;stroke:none"
         inkscape:box3dsidetype="5"
         d="m 429.58017,400.67833 54.75494,30.97885 50.08472,-34.46863 -54.75494,-30.97885 z" />
      <path
         sodipodi:type="inkscape:box3dside"
         id="path3051-2-9-8"
         style="fill:#00ff00;fill-opacity:1;fill-rule:evenodd;stroke:none"
         inkscape:box3dsidetype="14"
         d="m 484.33511,431.65718 0,62.13312 50.08472,-34.46863 0,-62.13312 z" />
      <path
         sodipodi:type="inkscape:box3dside"
         id="path3049-3-2-6"
         style="fill:#009500;fill-opacity:1;fill-rule:evenodd;stroke:none"
         inkscape:box3dsidetype="3"
         d="m 429.58017,400.67833 54.75494,30.97885 0,62.13312 -54.75494,-30.97885 z" />
    </g>
    <g
       sodipodi:type="inkscape:box3d"
       style="fill:#aa8800"
       id="g3043-2-9-4-5"
       inkscape:perspectiveID="#perspective3041-5-7-3-7"
       inkscape:corner0="0.78266065 : 0.25090554 : 0 : 1"
       inkscape:corner7="0.6634563 : 0.18877242 : 0.11520326 : 1"
       inkscape:transform-center-x="-2"
       inkscape:transform-center-y="-74"
       inkscape:export-filename="C:\Users\Q\Documents\Q Software Innovations Files\Code\Documentation Editor\SupportFiles\Product Icon.png"
       inkscape:export-xdpi="90"
       inkscape:export-ydpi="90">
      <path
         sodipodi:type="inkscape:box3dside"
         id="path3055-7-5-1-0"
         style="fill:#e9e9ff;fill-rule:evenodd;stroke:none"
         inkscape:box3dsidetype="11"
         d="m 479.66489,238.2097 54.75494,30.97885 0,62.13312 -54.75494,-30.97885 z" />
      <path
         sodipodi:type="inkscape:box3dside"
         id="path3045-6-4-1-2"
         style="fill:#353564;fill-rule:evenodd;stroke:none"
         inkscape:box3dsidetype="6"
         d="m 429.58017,272.67832 0,62.13312 50.08472,-34.46862 0,-62.13312 z" />
      <path
         sodipodi:type="inkscape:box3dside"
         id="path3053-1-3-3-8"
         style="fill:#afafde;fill-rule:evenodd;stroke:none"
         inkscape:box3dsidetype="13"
         d="m 429.58017,334.81144 54.75494,30.97886 50.08472,-34.46863 -54.75494,-30.97885 z" />
      <path
         sodipodi:type="inkscape:box3dside"
         id="path3047-4-1-8-6"
         style="fill:#ffff7f;fill-opacity:1;fill-rule:evenodd;stroke:none"
         inkscape:box3dsidetype="5"
         d="m 429.58017,272.67832 54.75494,30.97886 50.08472,-34.46863 -54.75494,-30.97885 z" />
      <path
         sodipodi:type="inkscape:box3dside"
         id="path3051-2-2-7-0"
         style="fill:#fdff00;fill-opacity:1;fill-rule:evenodd;stroke:none"
         inkscape:box3dsidetype="14"
         d="m 484.33511,303.65718 0,62.13312 50.08472,-34.46863 0,-62.13312 z" />
      <path
         sodipodi:type="inkscape:box3dside"
         id="path3049-3-3-4-2"
         style="fill:#999b00;fill-opacity:1;fill-rule:evenodd;stroke:none"
         inkscape:box3dsidetype="3"
         d="m 429.58017,272.67832 54.75494,30.97886 0,62.13312 -54.75494,-30.97886 z" />
    </g>
    <g
       sodipodi:type="inkscape:box3d"
       style="fill:#aa8800"
       id="g3043-2-5-7-5"
       inkscape:perspectiveID="#perspective3041-5-8-2-1"
       inkscape:corner0="0.78266065 : 0.25090554 : 0 : 1"
       inkscape:corner7="0.6634563 : 0.18877242 : 0.11520326 : 1"
       inkscape:export-filename="C:\Users\Q\Documents\Q Software Innovations Files\Code\Documentation Editor\SupportFiles\Product Icon.png"
       inkscape:export-xdpi="90"
       inkscape:export-ydpi="90">
      <path
         sodipodi:type="inkscape:box3dside"
         id="path3055-7-7-9-5"
         style="fill:#e9e9ff;fill-rule:evenodd;stroke:none"
         inkscape:box3dsidetype="11"
         d="m 480.45436,494.83376 54.75494,30.97886 0,62.13312 -54.75494,-30.97886 z" />
      <path
         sodipodi:type="inkscape:box3dside"
         id="path3045-6-6-3-8"
         style="fill:#353564;fill-rule:evenodd;stroke:none"
         inkscape:box3dsidetype="6"
         d="m 430.36964,529.30239 0,62.13312 50.08472,-34.46863 0,-62.13312 z" />
      <path
         sodipodi:type="inkscape:box3dside"
         id="path3053-1-1-1-4"
         style="fill:#afafde;fill-rule:evenodd;stroke:none"
         inkscape:box3dsidetype="13"
         d="m 430.36964,591.43551 54.75494,30.97885 50.08472,-34.46862 -54.75494,-30.97886 z" />
      <path
         sodipodi:type="inkscape:box3dside"
         id="path3047-4-8-9-0"
         style="fill:#ff8585;fill-opacity:1;fill-rule:evenodd;stroke:none"
         inkscape:box3dsidetype="5"
         d="m 430.36964,529.30239 54.75494,30.97885 50.08472,-34.46862 -54.75494,-30.97886 z" />
      <path
         sodipodi:type="inkscape:box3dside"
         id="path3051-2-9-8-5"
         style="fill:#ff0000;fill-opacity:1;fill-rule:evenodd;stroke:none"
         inkscape:box3dsidetype="14"
         d="m 485.12458,560.28124 0,62.13312 50.08472,-34.46862 0,-62.13312 z" />
      <path
         sodipodi:type="inkscape:box3dside"
         id="path3049-3-2-6-4"
         style="fill:#950000;fill-opacity:1;fill-rule:evenodd;stroke:none"
         inkscape:box3dsidetype="3"
         d="m 430.36964,529.30239 54.75494,30.97885 0,62.13312 -54.75494,-30.97885 z" />
    </g>
  </g>
  <g
     inkscape:groupmode="layer"
     id="layer7"
     inkscape:label="Title Block"
     style="display:inline" />
  <g
     inkscape:groupmode="layer"
     id="layer4"
     inkscape:label="Title" />
</svg>
